<svg xmlns="http://www.w3.org/2000/svg" xmlns:xlink="http://www.w3.org/1999/xlink" width="377px" height="400px" viewBox="0 0 377 400" version="1.1">
    <title>Artboard</title>
    <desc>Created with Sketch.</desc>
    <g id="Artboard" stroke="none" stroke-width="1" fill="none" fill-rule="evenodd">
        <path d="M22.458,268.716 C24.223,261.013 27.853,253.662 33.96,248.486 C45.284,238.887 65.109,240.443 68.646,256.869 C68.888,257.99 69.31,258.916 69.854,259.671 C68.815,260.271 67.811,260.897 66.854,261.548 C54.923,269.659 46.708,282.454 44.674,296.778 C44.101,300.816 45.666,304.788 49.912,306.004 C53.421,307.008 58.569,304.773 59.139,300.765 C60.553,290.801 65.078,281.588 73.193,275.38 C80.036,270.145 93.263,264.643 101.599,269.278 C110.043,273.973 117.616,261.022 109.169,256.325 C101.524,252.075 92.098,251.948 83.281,254.195 C83.256,253.768 83.208,253.333 83.11,252.881 C80.632,241.371 71.532,232.253 60.411,228.748 C59.256,228.384 58.087,228.112 56.913,227.883 C69.742,206.768 94.228,195.722 117.981,200.237 C113.693,203.553 109.647,207.313 105.728,211.244 C98.904,218.089 109.507,228.699 116.335,221.851 C122.794,215.372 129.569,209.044 137.708,205.644 C138.263,205.502 138.792,205.296 139.293,205.037 C142.747,203.786 146.439,203.053 150.464,203.078 C163.248,203.158 178.386,209.268 187.833,217.899 C197.847,227.046 197.786,242.811 194.258,254.969 C191.338,265.028 183.096,281.21 170.881,281.553 C170.862,281.553 170.846,281.556 170.827,281.557 C156.617,276.703 140.55,278.03 127,284.701 C118.341,288.966 125.933,301.907 134.571,297.653 C147.466,291.304 163.491,292.35 175.357,300.516 C186.499,308.185 192.73,321.477 192.563,334.835 C192.443,344.49 207.443,344.496 207.563,334.835 C207.774,317.934 200.203,301.688 187.34,290.926 C193.649,286.571 198.756,280.186 202.55,273.54 C209.456,261.442 212.531,247.097 210.809,233.258 C209.07,219.294 202.025,208.957 190.712,201.462 C197.567,195.544 206.665,193.028 215.904,192.701 L215.904,193.157 L225.987,193.157 C229.161,193.545 232.259,194.144 235.186,194.906 C250.101,198.789 268.649,209.134 271.304,225.782 C271.478,226.871 271.982,227.824 272.688,228.623 C256.702,240.783 246.94,261.371 256.041,280.146 C245.103,285.683 236.168,294.948 233.716,305.859 C231.603,315.261 246.061,319.276 248.18,309.847 C250.212,300.803 257.737,295.282 266.143,292.333 C274.244,289.491 286.107,287.365 291.406,296.11 C296.402,304.356 309.379,296.825 304.358,288.539 C296.981,276.364 283.458,272.969 270.154,275.371 C270.005,274.76 269.782,274.139 269.456,273.512 C259.276,253.941 285.684,232.147 303.77,232.947 C324.571,233.868 336.199,255.198 330.147,273.971 C330.02,274.362 329.937,274.741 329.872,275.112 C327.916,275.172 325.944,275.357 323.965,275.683 C314.464,277.252 318.494,291.709 327.952,290.148 C340.784,288.029 353.955,296.982 358.798,308.622 C364.283,321.808 360.398,337.849 351.484,348.573 C334.679,368.79 295.752,378.412 275.953,357.276 C269.53,350.418 259.357,360.242 264.823,367.266 C251.763,378.545 232.069,383.628 215.53,384.093 C205.996,384.362 196.577,383.174 187.44,380.42 C178.795,377.814 169.427,373.926 164.378,366.023 C164.12,365.618 163.837,365.263 163.544,364.935 C169.563,360.471 174.104,354.463 175.883,346.401 C177.958,336.993 163.501,332.975 161.419,342.413 C157.809,358.776 133.841,361.695 120.112,362.203 C105.391,362.748 89.95,358.33 82.019,345.435 C86.859,340.904 91.114,335.884 94.537,330.768 C99.919,322.722 86.932,315.204 81.585,323.197 C70.964,339.073 47.862,356.936 28.325,345.709 C11.731,336.172 10.369,312.112 26.371,301.124 C30.649,298.186 30.415,293.036 28.038,289.791 C27.378,288.502 26.364,287.343 25.142,286.409 C20.274,282.693 21.289,273.821 22.458,268.716 M49.737,129.457 C44.774,129.457 40.737,125.419 40.737,120.457 C40.737,115.494 44.774,111.457 49.737,111.457 C54.7,111.457 58.737,115.494 58.737,120.457 C58.737,125.419 54.7,129.457 49.737,129.457 M98.07,27.333 C103.033,27.333 107.07,31.371 107.07,36.333 C107.07,41.296 103.033,45.333 98.07,45.333 C93.107,45.333 89.07,41.296 89.07,36.333 C89.07,31.371 93.107,27.333 98.07,27.333 M188.07,15 C193.033,15 197.07,19.037 197.07,24 C197.07,28.962 193.033,33 188.07,33 C183.107,33 179.07,28.962 179.07,24 C179.07,19.037 183.107,15 188.07,15 M278.07,27.333 C283.033,27.333 287.07,31.371 287.07,36.333 C287.07,41.296 283.033,45.333 278.07,45.333 C273.107,45.333 269.07,41.296 269.07,36.333 C269.07,31.371 273.107,27.333 278.07,27.333 M326.404,111.457 C331.367,111.457 335.404,115.494 335.404,120.457 C335.404,125.419 331.367,129.457 326.404,129.457 C321.441,129.457 317.404,125.419 317.404,120.457 C317.404,115.494 321.441,111.457 326.404,111.457 M18.321,357.124 C35.122,368.624 54.228,364.839 70.092,354.73 C81.02,371.603 102.398,378.274 121.942,377.114 C130.811,376.588 141.206,375.13 150.543,371.722 C150.741,372.338 151.023,372.963 151.426,373.593 C164.002,393.281 192.071,399.367 213.926,399.125 C235.225,398.89 260.766,392.086 276.718,376.784 C297.974,388.788 327.361,384.612 347.38,371.789 C372.316,355.816 386.717,320.023 367.587,293.969 C361.728,285.987 353.763,280.201 344.812,277.268 C353.549,248.662 332.909,218.04 302.323,217.912 C296.72,217.888 291.058,219.085 285.661,221.236 C283.701,210.127 276.468,200.911 267.237,193.911 L267.237,160.113 L310.392,138.315 C314.642,142.13 320.256,144.457 326.404,144.457 C339.638,144.457 350.404,133.69 350.404,120.457 C350.404,107.223 339.638,96.457 326.404,96.457 C313.171,96.457 302.404,107.223 302.404,120.457 C302.404,122.114 302.573,123.732 302.895,125.296 L252.237,150.886 L252.237,185.076 C247.86,183.102 243.424,181.549 239.173,180.442 C236.488,179.743 233.72,179.17 230.904,178.731 L230.904,141.19 L285.57,108.19 L285.57,59.127 C295.141,55.969 302.07,46.947 302.07,36.333 C302.07,23.1 291.304,12.333 278.07,12.333 C264.837,12.333 254.07,23.1 254.07,36.333 C254.07,46.947 261,55.969 270.57,59.127 L270.57,99.724 L215.904,132.724 L215.904,177.778 C208.925,177.997 201.993,179.183 195.57,181.569 L195.57,46.793 C205.141,43.635 212.07,34.614 212.07,24 C212.07,10.766 201.304,-2.84217094e-14 188.07,-2.84217094e-14 C174.837,-2.84217094e-14 164.07,10.766 164.07,24 C164.07,34.614 171,43.635 180.57,46.793 L180.57,190.407 C179.839,191.05 179.12,191.711 178.425,192.408 C177.858,192.979 177.422,193.576 177.084,194.186 C171.679,191.835 166.009,189.981 160.237,188.956 L160.237,132.724 L105.57,99.724 L105.57,59.127 C115.141,55.969 122.07,46.947 122.07,36.333 C122.07,23.1 111.304,12.333 98.07,12.333 C84.837,12.333 74.07,23.1 74.07,36.333 C74.07,46.947 81,55.969 90.57,59.127 L90.57,108.19 L145.237,141.19 L145.237,188.367 C142.036,188.717 138.987,189.382 136.075,190.32 C132.086,188.654 128.015,187.366 123.904,186.426 L123.904,150.886 L73.247,125.296 C73.568,123.732 73.737,122.114 73.737,120.457 C73.737,107.223 62.971,96.457 49.737,96.457 C36.504,96.457 25.737,107.223 25.737,120.457 C25.737,133.69 36.504,144.457 49.737,144.457 C55.886,144.457 61.499,142.13 65.751,138.315 L108.904,160.113 L108.904,184.556 C81.289,183.939 54.362,198.587 41.361,225.031 C40.753,226.267 40.508,227.48 40.528,228.629 C34.709,230.217 29.203,233.094 24.565,236.87 C9.454,249.173 -0.207,277.077 12.134,293.824 C-5.293,311.872 -3.667,342.07 18.321,357.124" id="Fill-152" fill="#fff"/>
    </g>
</svg>
